[
  {
    "username": "Валера сиделый",
    "options": [
      {
        "title": "Product",
        "time": "0 hrs/10 hrs"
      },
      {
        "title": "Shmroduct",
        "time": "0 hrs/10 hrs"
      },
      {
        "title": "Babachduct",
        "time": "0 hrs/10 hrs"
      },
      {
        "title": "Bebecduct",
        "time": "0 hrs/10 hrs"
      },
      {
        "title": "Bobocduct",
        "time": "0 hrs/10 hrs"
      }
    ]
  },
  {
    "username": "Артём Поляничев",
    "options": [
      {
        "title": "Product",
        "time": "0 hrs/10 hrs"
      },
      {
        "title": "Shmroduct",
        "time": "0 hrs/10 hrs"
      },
      {
        "title": "Babachduct",
        "time": "0 hrs/10 hrs"
      },
      {
        "title": "Bebecduct",
        "time": "0 hrs/10 hrs"
      },
      {
        "title": "Bobocduct",
        "time": "0 hrs/10 hrs"
      }
    ]
  },
  {
    "username": "Вячеслав Приход",
    "options": [
      {
        "title": "Product",
        "time": "0 hrs/10 hrs"
      },
      {
        "title": "Shmroduct",
        "time": "0 hrs/10 hrs"
      },
      {
        "title": "Babachduct",
        "time": "0 hrs/10 hrs"
      },
      {
        "title": "Bebecduct",
        "time": "0 hrs/10 hrs"
      },
      {
        "title": "Bobocduct",
        "time": "0 hrs/10 hrs"
      }
    ]
  },
  {
    "username": "Артём Татевосян",
    "options": [
      {
        "title": "Product",
        "time": "0 hrs/10 hrs"
      },
      {
        "title": "Shmroduct",
        "time": "0 hrs/10 hrs"
      },
      {
        "title": "Babachduct",
        "time": "0 hrs/10 hrs"
      },
      {
        "title": "Bebecduct",
        "time": "0 hrs/10 hrs"
      },
      {
        "title": "Bobocduct",
        "time": "0 hrs/10 hrs"
      }
    ]
  },
  {
    "username": "Тимур Джанкёзов",
    "options": [
      {
        "title": "Product",
        "time": "0 hrs/10 hrs"
      },
      {
        "title": "Shmroduct",
        "time": "0 hrs/10 hrs"
      },
      {
        "title": "Babachduct",
        "time": "0 hrs/10 hrs"
      },
      {
        "title": "Bebecduct",
        "time": "0 hrs/10 hrs"
      },
      {
        "title": "Bobocduct",
        "time": "0 hrs/10 hrs"
      }
    ]
  }
]
